Dynamic Associations Between Emotion Regulation, Mental Fatigue, and Stress: An Ecological Momentary Assessment Study
…
# Count completed surveys per PID
survey_counts <- d %>%
  filter(Finished == 1) %>%
  group_by(PID) %>%
  summarise(surveys_completed = n())

# Calculate percentage completion per participant
Percent_Complete_byPID <- survey_counts %>%
  mutate(Percent_Complete = (surveys_completed / total_possible_surveys) * 100)

# View the result
print(Percent_Complete_byPID)

# A tibble: 179 × 3
     PID surveys_completed Percent_Complete
   <dbl>             <int>            <dbl>
 1  1003               101            90.2 
 2  1004                76            67.9 
 3  1006                27            24.1 
 4  1007                96            85.7 
 5  1017                 8             7.14
 6  1019                59            52.7 
 7  1020               107            95.5 
 8  1022                84            75   
 9  1023                17            15.2 
10  1026                96            85.7 
# ℹ 169 more rows
…
Code

# look at time intervals in a table

all_intervals <- time_diffs %>%
  mutate(previous_session = Session_Number - 1)

all_intervals <- all_intervals[ , c("PID", "Day_Number", "previous_session", 
                                    "Session_Number", "time_diff")]

all_intervals <- all_intervals[order(all_intervals$time_diff), ]

all_intervals

# A tibble: 15,036 × 5
     PID Day_Number previous_session Session_Number time_diff
   <dbl>      <int>            <dbl>          <int>     <dbl>
 1  2030         22                3              4      6.02
 2  1255         21                2              3     44.0 
 3  2196         13                2              3     45.7 
 4  1268          3                3              4     47.5 
 5  1003         14                1              2     49.2 
 6  2238          3                1              2     56.8 
 7  1222         23                1              2     58.0 
 8  2273         16                3              4     60.1 
 9  1251         11                2              3     60.1 
10  1036         11                3              4     60.3 
# ℹ 15,026 more rows
…
Median number of valid pairs per participant: 35 

Code

# Create a frequency table with the full range of 0 to 84
pair_freq_df <- pairs_per_person %>%
  count(num_valid_pairs) %>%
  complete(num_valid_pairs = 0:84, fill = list(n = 0)) %>%
  rename(Number_of_Pairs = num_valid_pairs, Frequency = n)

# View result
print(pair_freq_df)

# A tibble: 85 × 2
   Number_of_Pairs Frequency
             <dbl>     <int>
 1               0         0
 2               1        10
 3               2         6
 4               3         5
 5               4         3
 6               5         5
 7               6         3
 8               7         2
 9               8         1
10               9         4
# ℹ 75 more rows
…
